,Disease Name,CO_0to28D,CO_1to11M,CO_12to59M,CO_5to9Y,CO_10to19Y,CO_20to40Y,CO_Ovr40Y,CO_Total,CI_0to28D,CI_1to11M,CI_12to59M,CI_5to9Y,CI_10to19Y,CI_20to40Y,CI_Ovr40Y,CI_Total,CIO_Total,DIO_0to28D,DIO_1to11M,DIO_12to59M,DIO_5to9Y,DIO_10to19Y,DIO_20to40Y,DIO_Ovr40Y,DIO_Total,State,Year,Month,LGA
0,Buruli Ulcer,0,0,0,0,0,0,0,0,0,0,0,0,0,0,0,0,0,0,0,0,0,0,0,0,0,LAGOS,2018,February,Epe
1,CSM,0,0,0,0,0,0,0,0,0,0,0,0,0,0,0,0,0,0,0,0,0,0,0,0,0,LAGOS,2018,February,Epe
2,Cholera,0,0,0,0,0,0,0,0,0,0,0,0,0,0,0,0,0,0,0,0,0,0,0,0,0,LAGOS,2018,February,Epe
3,Diarrhoea with dehydration(5yrs),0,30,56,0,0,0,0,86,0,0,0,0,0,0,0,0,86,0,0,0,0,0,0,0,0,LAGOS,2018,February,Epe
4,Diarrhoea (with blood),0,0,3,0,0,2,0,5,0,0,0,0,0,0,0,0,5,0,0,0,0,0,0,0,0,LAGOS,2018,February,Epe
5,Diphtheria,0,2,0,0,0,0,0,2,0,0,0,0,0,0,0,0,2,0,0,0,0,0,0,0,0,LAGOS,2018,February,Epe
6,Dracunculiasis (Guinea Worm Disease),0,0,0,0,0,0,0,0,0,0,0,0,0,0,0,0,0,0,0,0,0,0,0,0,0,LAGOS,2018,February,Epe
7,Hepatitis A,0,0,0,0,0,0,0,0,0,0,0,0,0,0,0,0,0,0,0,0,0,0,0,0,0,LAGOS,2018,February,Epe
8,Hepatitis B,0,0,0,0,0,0,0,0,0,0,0,0,0,0,0,0,0,0,0,0,0,0,0,0,0,LAGOS,2018,February,Epe
9,Hepatitis C,0,0,0,0,0,0,0,0,0,0,0,0,0,0,0,0,0,0,0,0,0,0,0,0,0,LAGOS,2018,February,Epe
10,Human African Trypanosomiasis (HAT),0,1,3,2,2,6,5,19,0,1,0,0,0,0,0,1,20,0,0,0,0,0,0,0,0,LAGOS,2018,February,Epe
11,Injuries (Road Traffic Accident),0,5,4,12,19,68,25,133,0,1,0,4,2,7,7,21,154,0,0,0,0,0,1,0,1,LAGOS,2018,February,Epe
12,Lassa fever (Viral hemorrhagic fever),0,4,4,5,5,6,5,29,0,0,0,0,0,0,0,0,29,0,0,0,0,0,0,0,0,LAGOS,2018,February,Epe
13,Leprosy,0,0,0,0,0,0,0,0,0,0,0,0,0,0,0,0,0,0,0,0,0,0,0,0,0,LAGOS,2018,February,Epe
14,Lymphatic Filariasis,0,1,3,1,5,5,3,18,0,1,0,0,0,0,1,2,20,0,0,0,0,0,0,0,0,LAGOS,2018,February,Epe
15,Malaria,26,262,1149,767,813,1600,930,5547,5,5,15,11,10,60,9,115,5662,0,0,0,1,1,1,0,3,LAGOS,2018,February,Epe
16,Malaria (severe),0,1,11,15,15,20,13,75,0,0,0,0,1,1,0,2,77,0,0,0,0,0,0,0,0,LAGOS,2018,February,Epe
17,Malaria (Pregnant Women),0,0,0,0,6,21,8,35,0,0,0,0,0,0,0,0,35,0,0,0,0,0,0,0,0,LAGOS,2018,February,Epe
18,Measles,0,0,0,0,0,0,0,0,0,0,0,0,0,0,0,0,0,0,0,0,0,0,0,0,0,LAGOS,2018,February,Epe
19,Neonatal Tetanus,0,0,0,0,0,0,0,0,0,0,0,0,0,0,0,0,0,0,0,0,0,0,0,0,0,LAGOS,2018,February,Epe
20,New HIV/ AIDS cases,0,0,3,2,9,74,23,111,0,0,0,0,0,0,0,0,111,0,0,0,0,0,0,0,0,LAGOS,2018,February,Epe
21,Onchocerciasis,0,0,0,0,0,0,0,0,0,0,0,0,0,0,0,0,0,0,0,0,0,0,0,0,0,LAGOS,2018,February,Epe
22,Pertussis,0,0,0,0,0,0,0,0,0,0,0,0,0,0,0,0,0,0,0,0,0,0,0,0,0,LAGOS,2018,February,Epe
23,Pneumonia ? 5yrs,0,0,2,2,0,0,0,4,0,0,0,0,0,0,0,0,4,0,0,0,0,0,0,0,0,LAGOS,2018,February,Epe
24,Poliomyelitis,0,0,0,0,0,0,0,0,0,0,0,0,0,0,0,0,0,0,0,0,0,0,0,0,0,LAGOS,2018,February,Epe
25,Rabies (Human),0,0,0,0,0,0,0,0,0,0,0,0,0,0,0,0,0,0,0,0,0,0,0,0,0,LAGOS,2018,February,Epe
26,Severe Acute Respiratory Illness (SARI),0,0,0,0,0,0,0,0,0,0,0,0,0,0,0,0,0,0,0,0,0,0,0,0,0,LAGOS,2018,February,Epe
27,Schistosomiasis,0,0,1,0,0,1,0,2,0,0,0,0,0,0,0,0,2,0,0,0,0,0,0,0,0,LAGOS,2018,February,Epe
28,Sexually Transmitted Infections (STIs):,0,0,0,0,0,0,0,0,0,0,0,0,0,0,0,0,0,0,0,0,0,0,0,0,0,LAGOS,2018,February,Epe
29,Vaginal discharge,0,0,0,1,7,35,2,45,0,0,0,0,0,0,0,0,45,0,0,0,0,0,0,0,0,LAGOS,2018,February,Epe
30,Genital Ulcer,0,0,0,0,4,18,6,28,0,0,0,0,0,0,0,0,28,0,0,0,0,0,0,0,0,LAGOS,2018,February,Epe
31,Urethral discharge,0,0,0,0,0,0,0,0,0,0,0,0,0,0,0,0,0,0,0,0,0,0,0,0,0,LAGOS,2018,February,Epe
32,Others STIs,0,0,0,0,0,0,0,0,0,0,0,0,0,0,0,0,0,0,0,0,0,0,0,0,0,LAGOS,2018,February,Epe
33,Trachoma,0,0,0,0,0,1,0,1,0,0,0,0,0,0,0,0,1,0,0,0,0,0,0,0,0,LAGOS,2018,February,Epe
34,Typhoid Fever,0,0,6,39,91,257,167,560,0,0,0,0,6,14,10,30,590,0,0,0,0,0,0,0,0,LAGOS,2018,February,Epe
35,Tuberculosis,0,0,0,0,0,1,0,1,0,0,0,0,0,0,0,0,1,0,0,0,0,0,0,0,0,LAGOS,2018,February,Epe
36,Yellow Fever,0,0,0,0,0,0,0,0,0,0,0,0,0,0,0,0,0,0,0,0,0,0,0,0,0,LAGOS,2018,February,Epe
37,,,,,,,,,,,,,,,,,,,,,,,,,,,LAGOS,2018,February,Epe
38,Adverse Events following immunization (AEFI),0,0,0,0,1,2,0,3,0,0,0,0,0,0,0,0,3,0,0,0,0,0,0,0,0,LAGOS,2018,February,Epe
39,Asthma,0,0,0,2,9,18,19,48,0,0,0,0,0,1,0,1,49,0,0,0,0,0,0,0,0,LAGOS,2018,February,Epe
40,Diabetes Mellitus,0,0,0,0,2,27,121,150,0,0,0,0,0,0,1,1,151,0,0,0,0,0,0,0,0,LAGOS,2018,February,Epe
41,Hypertension,0,0,0,0,1,43,205,249,0,0,0,0,0,0,5,5,254,0,0,0,0,0,0,0,0,LAGOS,2018,February,Epe
42,Malnutrition,0,0,0,0,0,0,0,0,0,0,0,0,0,0,0,0,0,0,0,0,0,0,0,0,0,LAGOS,2018,February,Epe
43,Maternal Deaths,0,0,0,0,0,0,0,0,0,0,0,0,0,0,0,0,0,0,0,0,0,0,0,0,0,LAGOS,2018,February,Epe
44,"MNS Disorder (Epilepsy, Schizorphernia depression etc)",0,0,0,0,0,0,1,1,0,0,0,0,0,0,0,0,1,0,0,0,0,0,0,0,0,LAGOS,2018,February,Epe
45,Noma,0,0,0,0,0,0,0,0,0,0,0,0,0,0,0,0,0,0,0,0,0,0,0,0,0,LAGOS,2018,February,Epe
46,Sickle Cell Disorder,0,0,1,0,0,0,0,1,0,0,0,0,0,0,0,0,1,0,0,0,0,0,0,0,0,LAGOS,2018,February,Epe
47,Snake Bite,0,0,0,0,1,0,0,1,0,0,0,0,0,0,0,0,1,0,0,0,0,0,0,0,0,LAGOS,2018,February,Epe
48,Soil Transmitted Helminths,0,0,0,0,0,0,0,0,0,0,0,0,0,0,0,0,0,0,0,0,0,0,0,0,0,LAGOS,2018,February,Epe
