,Disease Name,0-28 Days,1-11 Months,12-59 Months,5-9 Years,10-19 Years,20-40 Years,>40 Years,Total,0-28 Days,1-11 Months,12-59 Months,5-9 Years,10-19 Years,20-40 Years,>40 Years,Total,Total Cases In & Out Patient,0-28 Days,1-11 Months,12-59 Months,5-9 Years,10-19 Years,20-40 Years,>40 Years,Total,State,Year,Month,LGA
0,Buruli Ulcer,0,0,0,0,0,0,0,0,0,0,0,0,0,0,0,0,0,0,0,0,0,0,0,0,0,LAGOS,2018,August,Epe
1,CSM,0,0,0,0,0,0,0,0,0,0,0,0,0,0,0,0,0,0,0,0,0,0,0,0,0,LAGOS,2018,August,Epe
2,Cholera,0,0,0,0,0,0,0,0,0,0,0,0,0,0,0,0,0,0,0,0,0,0,0,0,0,LAGOS,2018,August,Epe
3,Diarrhoea with dehydration(5yrs),1,14,19,0,0,0,0,34,0,0,0,0,0,0,0,0,34,0,0,0,0,0,0,0,0,LAGOS,2018,August,Epe
4,Diarrhoea (with blood),0,0,0,1,0,0,0,1,0,0,0,0,0,0,0,0,1,0,0,0,0,0,0,0,0,LAGOS,2018,August,Epe
5,Diphtheria,0,0,0,0,0,0,0,0,0,0,0,0,0,0,0,0,0,0,0,0,0,0,0,0,0,LAGOS,2018,August,Epe
6,Dracunculiasis (Guinea Worm Disease),0,0,0,0,0,0,0,0,0,0,0,0,0,0,0,0,0,0,0,0,0,0,0,0,0,LAGOS,2018,August,Epe
7,Hepatitis A,0,0,0,0,0,0,0,0,0,0,0,0,0,0,0,0,0,0,0,0,0,0,0,0,0,LAGOS,2018,August,Epe
8,Hepatitis B,0,0,0,0,0,0,0,0,0,0,0,0,0,0,0,0,0,0,0,0,0,0,0,0,0,LAGOS,2018,August,Epe
9,Hepatitis C,0,0,0,0,0,0,0,0,0,0,0,0,0,0,0,0,0,0,0,0,0,0,0,0,0,LAGOS,2018,August,Epe
10,Human African Trypanosomiasis (HAT),0,1,0,1,1,2,0,5,0,0,0,0,0,0,0,0,5,0,0,0,0,0,0,0,0,LAGOS,2018,August,Epe
11,Injuries (Road Traffic Accident),0,0,0,2,10,22,12,46,0,0,0,0,0,1,0,1,47,0,0,0,0,0,0,0,0,LAGOS,2018,August,Epe
12,Lassa fever (Viral hemorrhagic fever),0,0,3,0,1,3,0,7,0,0,0,0,0,0,0,0,7,0,0,0,0,0,0,0,0,LAGOS,2018,August,Epe
13,Leprosy,0,0,0,0,0,0,0,0,0,0,0,0,0,0,0,0,0,0,0,0,0,0,0,0,0,LAGOS,2018,August,Epe
14,Lymphatic Filariasis,0,1,0,1,1,2,0,5,0,0,0,0,0,0,0,0,5,0,0,0,0,0,0,0,0,LAGOS,2018,August,Epe
15,Malaria,4,48,128,110,109,167,103,669,2,5,8,3,3,16,7,44,713,0,0,0,0,0,0,0,0,LAGOS,2018,August,Epe
16,Malaria (severe),0,0,0,4,5,5,8,22,0,0,0,2,2,3,4,11,33,0,0,0,0,0,0,0,0,LAGOS,2018,August,Epe
17,Malaria (Pregnant Women),0,0,0,0,1,29,2,32,0,0,0,0,0,4,0,4,36,0,0,0,0,0,0,0,0,LAGOS,2018,August,Epe
18,Measles,0,1,2,0,0,1,0,4,0,0,0,0,0,0,0,0,4,0,0,0,0,0,0,0,0,LAGOS,2018,August,Epe
19,Neonatal Tetanus,0,0,0,0,2,3,4,9,0,0,0,0,0,0,0,0,9,0,0,0,0,0,0,0,0,LAGOS,2018,August,Epe
20,New HIV/ AIDS cases,0,0,0,0,0,8,4,12,0,0,0,0,0,0,0,0,12,0,0,0,0,0,0,0,0,LAGOS,2018,August,Epe
21,Onchocerciasis,0,0,0,0,0,0,0,0,0,0,0,0,0,0,0,0,0,0,0,0,0,0,0,0,0,LAGOS,2018,August,Epe
22,Pertussis,0,0,0,0,0,0,0,0,0,0,0,0,0,0,0,0,0,0,0,0,0,0,0,0,0,LAGOS,2018,August,Epe
23,Pneumonia ? 5yrs,0,1,0,1,0,0,0,2,0,0,0,0,0,0,0,0,2,0,0,0,0,0,0,0,0,LAGOS,2018,August,Epe
24,Poliomyelitis,0,0,0,0,0,0,0,0,0,0,0,0,0,0,0,0,0,0,0,0,0,0,0,0,0,LAGOS,2018,August,Epe
25,Rabies (Human),0,0,0,0,2,3,0,5,0,0,0,0,0,0,0,0,5,0,0,0,0,0,0,0,0,LAGOS,2018,August,Epe
26,Severe Acute Respiratory Illness (SARI),0,0,0,0,0,0,0,0,0,0,0,0,0,0,0,0,0,0,0,0,0,0,0,0,0,LAGOS,2018,August,Epe
27,Schistosomiasis,0,0,0,0,0,0,0,0,0,0,0,0,0,0,0,0,0,0,0,0,0,0,0,0,0,LAGOS,2018,August,Epe
28,Sexually Transmitted Infections (STIs):,0,0,0,0,0,0,0,0,0,0,0,0,0,0,0,0,0,0,0,0,0,0,0,0,0,LAGOS,2018,August,Epe
29,Vaginal discharge,0,0,0,0,3,12,0,15,0,0,0,0,0,0,0,0,15,0,0,0,0,0,0,0,0,LAGOS,2018,August,Epe
30,Genital Ulcer,0,0,0,0,2,2,0,4,0,0,0,0,0,0,0,0,4,0,0,0,0,0,0,0,0,LAGOS,2018,August,Epe
31,Urethral discharge,0,0,0,0,0,1,3,4,0,0,0,0,0,0,0,0,4,0,0,0,0,0,0,0,0,LAGOS,2018,August,Epe
32,Others STIs,0,0,0,0,0,2,0,2,0,0,0,0,0,0,0,0,2,0,0,0,0,0,0,0,0,LAGOS,2018,August,Epe
33,Trachoma,0,0,0,0,0,0,0,0,0,0,0,0,0,0,0,0,0,0,0,0,0,0,0,0,0,LAGOS,2018,August,Epe
34,Typhoid Fever,0,0,7,8,12,39,15,81,0,0,3,3,5,10,6,27,108,0,0,0,0,0,0,0,0,LAGOS,2018,August,Epe
35,Tuberculosis,0,0,0,0,0,0,0,0,0,0,0,0,0,0,0,0,0,0,0,0,0,0,0,0,0,LAGOS,2018,August,Epe
36,Yellow Fever,0,0,0,0,0,1,0,1,0,0,0,0,0,0,0,0,1,0,0,0,0,0,0,0,0,LAGOS,2018,August,Epe
38,Adverse Events following immunization (AEFI),0,2,0,0,0,0,0,2,0,0,0,0,0,0,0,0,2,0,0,0,0,0,0,0,0,LAGOS,2018,August,Epe
39,Asthma,0,2,0,6,0,8,4,20,0,2,0,1,0,2,1,6,26,0,0,0,0,0,0,0,0,LAGOS,2018,August,Epe
40,Diabetes Mellitus,0,0,0,0,0,5,16,21,0,0,0,0,0,0,2,2,23,0,0,0,0,0,0,0,0,LAGOS,2018,August,Epe
41,Hypertension,0,0,0,0,0,20,45,65,0,0,0,0,0,0,3,3,68,0,0,0,0,0,0,0,0,LAGOS,2018,August,Epe
42,Malnutrition,0,0,0,0,0,0,0,0,0,0,0,0,0,0,0,0,0,0,0,0,0,0,0,0,0,LAGOS,2018,August,Epe
43,Maternal Deaths,0,0,0,0,0,0,0,0,0,0,0,0,0,0,0,0,0,0,0,0,0,0,0,0,0,LAGOS,2018,August,Epe
44,"MNS Disorder (Epilepsy, Schizorphernia depression etc)",0,0,0,0,0,0,0,0,0,0,0,0,0,0,0,0,0,0,0,0,0,0,0,0,0,LAGOS,2018,August,Epe
45,Noma,0,0,0,0,0,0,0,0,0,0,0,0,0,0,0,0,0,0,0,0,0,0,0,0,0,LAGOS,2018,August,Epe
46,Sickle Cell Disorder,0,0,0,0,0,0,0,0,0,0,0,0,0,0,0,0,0,0,0,0,0,0,0,0,0,LAGOS,2018,August,Epe
47,Snake Bite,0,0,0,0,0,0,0,0,0,0,0,0,0,0,0,0,0,0,0,0,0,0,0,0,0,LAGOS,2018,August,Epe
48,Soil Transmitted Helminths,0,0,0,0,0,0,0,0,0,0,0,0,0,0,0,0,0,0,0,0,0,0,0,0,0,LAGOS,2018,August,Epe
