,Disease Name,0-28 Days,1-11 Months,12-59 Months,5-9 Years,10-19 Years,20-40 Years,>40 Years,Total,0-28 Days,1-11 Months,12-59 Months,5-9 Years,10-19 Years,20-40 Years,>40 Years,Total,Total Cases In & Out Patient,0-28 Days,1-11 Months,12-59 Months,5-9 Years,10-19 Years,20-40 Years,>40 Years,Total,State,Year,Month,LGA
0,Buruli Ulcer,0,0,0,0,0,0,0,0,0,0,0,0,0,0,0,0,0,0,0,0,0,0,0,0,0,LAGOS,2018,March,Badagry
1,CSM,0,0,0,0,0,0,0,0,0,0,0,0,0,0,0,0,0,0,0,0,0,0,0,0,0,LAGOS,2018,March,Badagry
2,Cholera,0,0,3,6,6,2,0,17,0,0,0,3,2,1,0,6,23,0,0,0,0,0,0,0,0,LAGOS,2018,March,Badagry
3,Diarrhoea with dehydration(5yrs),7,76,94,0,0,0,0,177,2,4,6,0,0,0,0,12,189,1,0,0,0,0,0,0,1,LAGOS,2018,March,Badagry
4,Diarrhoea (with blood),0,1,2,1,1,1,0,6,0,0,0,0,0,0,0,0,6,0,0,0,0,0,0,0,0,LAGOS,2018,March,Badagry
5,Diphtheria,0,0,0,0,0,0,0,0,0,0,0,0,0,0,0,0,0,0,0,0,0,0,0,0,0,LAGOS,2018,March,Badagry
6,Dracunculiasis (Guinea Worm Disease),0,0,0,0,0,0,0,0,0,0,0,0,0,0,0,0,0,0,0,0,0,0,0,0,0,LAGOS,2018,March,Badagry
7,Hepatitis A,0,0,0,0,0,0,0,0,0,0,0,0,0,0,1,1,1,0,0,0,0,0,0,0,0,LAGOS,2018,March,Badagry
8,Hepatitis B,1,1,2,2,2,3,1,12,0,0,1,2,1,0,0,4,16,0,0,0,1,0,0,0,1,LAGOS,2018,March,Badagry
9,Hepatitis C,0,0,0,0,0,0,0,0,0,0,0,0,0,0,0,0,0,0,0,0,0,0,0,0,0,LAGOS,2018,March,Badagry
10,Human African Trypanosomiasis (HAT),0,0,1,0,1,2,0,4,0,0,1,0,0,0,0,1,5,0,0,0,0,0,0,0,0,LAGOS,2018,March,Badagry
11,Injuries (Road Traffic Accident),0,0,1,0,20,62,12,95,0,0,1,0,1,17,1,20,115,0,0,0,0,0,0,0,0,LAGOS,2018,March,Badagry
12,Lassa fever (Viral hemorrhagic fever),0,0,0,1,1,1,1,4,0,0,0,0,0,0,0,0,4,0,0,0,0,0,0,0,0,LAGOS,2018,March,Badagry
13,Leprosy,0,0,0,0,0,0,0,0,0,0,0,0,0,0,0,0,0,0,0,0,0,0,0,0,0,LAGOS,2018,March,Badagry
14,Lymphatic Filariasis,0,0,0,0,1,2,1,4,0,0,0,0,0,2,0,2,6,0,0,0,0,0,0,0,0,LAGOS,2018,March,Badagry
15,Malaria,34,362,1416,920,1164,3642,1691,9229,1,11,72,62,104,329,121,700,9929,0,0,1,1,1,6,9,18,LAGOS,2018,March,Badagry
16,Malaria (severe),0,14,57,11,29,29,8,148,0,1,4,5,6,6,7,29,177,0,0,0,1,0,0,0,1,LAGOS,2018,March,Badagry
17,Malaria (Pregnant Women),0,0,0,0,5,27,8,40,0,0,0,0,0,16,6,22,62,0,0,0,0,0,0,0,0,LAGOS,2018,March,Badagry
18,Measles,1,3,6,4,1,2,0,17,0,1,3,2,1,1,0,8,25,0,0,0,0,0,0,0,0,LAGOS,2018,March,Badagry
19,Neonatal Tetanus,2,0,0,0,0,0,0,2,2,0,0,0,0,0,0,2,4,1,0,0,0,0,0,0,1,LAGOS,2018,March,Badagry
20,New HIV/ AIDS cases,0,0,0,5,7,15,11,38,0,0,0,0,2,4,7,13,51,0,0,0,0,0,2,1,3,LAGOS,2018,March,Badagry
21,Onchocerciasis,0,0,0,0,0,0,0,0,0,0,0,0,0,0,0,0,0,0,0,0,0,0,0,0,0,LAGOS,2018,March,Badagry
22,Pertussis,0,0,1,0,0,0,0,1,0,0,0,0,0,0,0,0,1,0,0,0,0,0,0,0,0,LAGOS,2018,March,Badagry
23,Pneumonia ? 5yrs,1,12,16,2,0,0,0,31,1,1,1,1,0,0,0,4,35,0,0,0,0,0,0,0,0,LAGOS,2018,March,Badagry
24,Poliomyelitis,0,0,0,0,0,0,0,0,0,0,0,0,0,0,0,0,0,0,0,0,0,0,0,0,0,LAGOS,2018,March,Badagry
25,Rabies (Human),0,0,0,0,0,0,0,0,0,0,0,0,0,0,0,0,0,0,0,0,0,0,0,0,0,LAGOS,2018,March,Badagry
26,Severe Acute Respiratory Illness (SARI),0,0,1,0,0,8,3,12,0,0,1,0,0,0,1,2,14,0,0,0,0,0,0,0,0,LAGOS,2018,March,Badagry
27,Schistosomiasis,0,0,0,0,0,0,0,0,0,0,0,0,0,0,0,0,0,0,0,0,0,0,0,0,0,LAGOS,2018,March,Badagry
28,Sexually Transmitted Infections (STIs):,0,0,0,0,0,0,0,0,0,0,0,0,0,0,0,0,0,0,0,0,0,0,0,0,0,LAGOS,2018,March,Badagry
29,Vaginal discharge,0,0,1,1,4,116,13,135,0,0,0,0,0,1,1,2,137,0,0,0,0,0,0,0,0,LAGOS,2018,March,Badagry
30,Genital Ulcer,0,0,0,0,0,2,1,3,0,0,0,0,0,0,0,0,3,0,0,0,0,0,0,8,8,LAGOS,2018,March,Badagry
31,Urethral discharge,0,0,0,0,0,22,14,36,0,0,0,0,0,0,0,0,36,0,0,0,0,0,0,0,0,LAGOS,2018,March,Badagry
32,Others STIs,1,0,0,9,12,76,3,101,0,0,0,0,0,1,0,1,102,0,0,0,0,0,0,3,3,LAGOS,2018,March,Badagry
33,Trachoma,0,0,0,0,0,1,0,1,0,0,0,0,0,0,0,0,1,0,0,0,0,0,0,0,0,LAGOS,2018,March,Badagry
34,Typhoid Fever,0,13,32,36,74,159,77,391,1,1,7,12,17,95,27,160,551,0,0,0,0,0,0,0,0,LAGOS,2018,March,Badagry
35,Tuberculosis,0,0,0,0,5,10,1,16,0,0,0,0,0,2,0,2,18,0,0,0,0,0,0,0,0,LAGOS,2018,March,Badagry
36,Yellow Fever,0,0,0,0,0,0,0,0,0,0,0,0,0,0,0,0,0,0,0,0,0,0,0,0,0,LAGOS,2018,March,Badagry
38,Adverse Events following immunization (AEFI),0,0,0,0,0,0,0,0,0,0,0,0,0,0,0,0,0,0,0,0,0,0,0,0,0,LAGOS,2018,March,Badagry
39,Asthma,0,22,2,6,8,43,12,93,0,0,3,1,2,3,0,9,102,0,0,0,0,0,0,0,0,LAGOS,2018,March,Badagry
40,Diabetes Mellitus,0,2,3,5,4,41,90,145,0,0,2,2,2,3,11,20,165,0,0,0,0,0,1,2,3,LAGOS,2018,March,Badagry
41,Hypertension,0,0,0,0,0,116,297,413,0,0,0,0,0,23,43,66,479,0,0,0,0,0,1,3,4,LAGOS,2018,March,Badagry
42,Malnutrition,0,1,0,0,0,0,0,1,0,0,0,0,0,0,0,0,1,0,0,0,0,0,0,0,0,LAGOS,2018,March,Badagry
43,Maternal Deaths,0,0,0,0,0,1,0,1,0,0,0,0,0,1,0,1,2,0,0,0,0,0,1,0,1,LAGOS,2018,March,Badagry
44,"MNS Disorder (Epilepsy, Schizorphernia depression etc)",0,0,0,0,0,1,0,1,0,0,0,0,0,0,0,0,1,0,0,0,0,0,0,0,0,LAGOS,2018,March,Badagry
45,Noma,0,0,0,0,0,0,0,0,0,0,0,0,0,0,0,0,0,0,0,0,0,0,0,0,0,LAGOS,2018,March,Badagry
46,Sickle Cell Disorder,0,0,4,4,5,14,0,27,0,0,1,1,1,2,0,5,32,0,0,0,0,0,1,0,1,LAGOS,2018,March,Badagry
47,Snake Bite,0,0,0,0,2,0,1,3,0,0,0,0,2,0,0,2,5,0,0,0,0,1,0,0,1,LAGOS,2018,March,Badagry
48,Soil Transmitted Helminths,0,0,0,0,0,0,0,0,0,0,0,0,0,0,0,0,0,0,0,0,0,0,0,0,0,LAGOS,2018,March,Badagry
