,Disease Name,0-28 Days,1-11 Months,12-59 Months,5-9 Years,10-19 Years,20-40 Years,>40 Years,Total,0-28 Days,1-11 Months,12-59 Months,5-9 Years,10-19 Years,20-40 Years,>40 Years,Total,Total Cases In & Out Patient,0-28 Days,1-11 Months,12-59 Months,5-9 Years,10-19 Years,20-40 Years,>40 Years,Total,State,Year,Month,LGA
0,Buruli Ulcer,0,0,0,0,0,0,0,0,0,0,0,0,0,0,0,0,0,0,0,0,0,0,0,0,0,LAGOS,2018,October,Epe
1,CSM,0,0,0,0,0,0,0,0,0,0,0,0,0,0,0,0,0,0,0,0,0,0,0,0,0,LAGOS,2018,October,Epe
2,Cholera,0,0,0,1,0,0,0,1,0,0,0,0,0,0,0,0,1,0,0,0,0,0,0,0,0,LAGOS,2018,October,Epe
3,Diarrhoea with dehydration(5yrs),3,12,12,0,0,0,0,27,0,0,0,0,0,0,0,0,27,0,0,0,0,0,0,0,0,LAGOS,2018,October,Epe
4,Diarrhoea (with blood),0,0,1,0,0,0,0,1,0,0,0,0,0,0,0,0,1,0,0,0,0,0,0,0,0,LAGOS,2018,October,Epe
5,Diphtheria,0,0,0,0,0,0,0,0,0,0,0,0,0,0,0,0,0,0,0,0,0,0,0,0,0,LAGOS,2018,October,Epe
6,Dracunculiasis (Guinea Worm Disease),0,0,0,0,0,0,0,0,0,0,0,0,0,0,0,0,0,0,0,0,0,0,0,0,0,LAGOS,2018,October,Epe
7,Hepatitis A,0,0,0,0,2,0,0,2,0,0,0,0,0,0,0,0,2,0,0,0,0,0,0,0,0,LAGOS,2018,October,Epe
8,Hepatitis B,0,0,0,0,0,0,0,0,0,0,0,0,0,0,0,0,0,0,0,0,0,0,0,0,0,LAGOS,2018,October,Epe
9,Hepatitis C,0,0,0,0,0,0,0,0,0,0,0,0,0,0,0,0,0,0,0,0,0,0,0,0,0,LAGOS,2018,October,Epe
10,Human African Trypanosomiasis (HAT),0,0,0,0,0,0,0,0,0,0,0,0,0,0,0,0,0,0,0,0,0,0,0,0,0,LAGOS,2018,October,Epe
11,Injuries (Road Traffic Accident),0,0,1,0,2,4,8,15,0,0,0,0,0,0,0,0,15,0,0,0,0,0,0,0,0,LAGOS,2018,October,Epe
12,Lassa fever (Viral hemorrhagic fever),0,0,0,0,0,0,0,0,0,0,0,0,0,0,0,0,0,0,0,0,0,0,0,0,0,LAGOS,2018,October,Epe
13,Leprosy,0,0,0,0,0,0,0,0,0,0,0,0,0,0,0,0,0,0,0,0,0,0,0,0,0,LAGOS,2018,October,Epe
14,Lymphatic Filariasis,0,0,5,6,11,1,0,23,0,0,0,0,0,0,0,0,23,0,0,0,0,0,0,0,0,LAGOS,2018,October,Epe
15,Malaria,10,39,185,142,145,229,124,874,0,0,0,0,0,1,0,1,875,0,0,0,0,0,0,0,0,LAGOS,2018,October,Epe
16,Malaria (severe),0,1,3,1,1,5,3,14,0,0,0,0,0,0,0,0,14,0,0,0,0,0,0,0,0,LAGOS,2018,October,Epe
17,Malaria (Pregnant Women),0,0,0,0,1,13,0,14,0,0,0,0,0,0,0,0,14,0,0,0,0,0,0,0,0,LAGOS,2018,October,Epe
18,Measles,0,0,0,0,0,0,0,0,0,0,0,0,0,0,0,0,0,0,0,0,0,0,0,0,0,LAGOS,2018,October,Epe
19,Neonatal Tetanus,0,0,0,0,0,0,0,0,0,0,0,0,0,0,0,0,0,0,0,0,0,0,0,0,0,LAGOS,2018,October,Epe
20,New HIV/ AIDS cases,0,0,0,0,1,4,5,10,0,0,0,0,0,0,0,0,10,0,0,0,0,0,0,0,0,LAGOS,2018,October,Epe
21,Onchocerciasis,0,0,0,0,0,0,0,0,0,0,0,0,0,0,0,0,0,0,0,0,0,0,0,0,0,LAGOS,2018,October,Epe
22,Pertussis,0,0,0,0,0,0,0,0,0,0,0,0,0,0,0,0,0,0,0,0,0,0,0,0,0,LAGOS,2018,October,Epe
23,Pneumonia ? 5yrs,0,2,1,0,0,0,0,3,0,0,0,0,0,0,0,0,3,0,0,0,0,0,0,0,0,LAGOS,2018,October,Epe
24,Poliomyelitis,0,0,0,0,0,0,0,0,0,0,0,0,0,0,0,0,0,0,0,0,0,0,0,0,0,LAGOS,2018,October,Epe
25,Rabies (Human),0,0,0,0,0,0,0,0,0,0,0,0,0,0,0,0,0,0,0,0,0,0,0,0,0,LAGOS,2018,October,Epe
26,Severe Acute Respiratory Illness (SARI),0,0,0,0,0,0,0,0,0,0,0,0,0,0,0,0,0,0,0,0,0,0,0,0,0,LAGOS,2018,October,Epe
27,Schistosomiasis,0,0,0,0,0,2,0,2,0,0,0,0,0,0,0,0,2,0,0,0,0,0,0,0,0,LAGOS,2018,October,Epe
28,Sexually Transmitted Infections (STIs):,0,0,0,0,0,0,0,0,0,0,0,0,0,0,0,0,0,0,0,0,0,0,0,0,0,LAGOS,2018,October,Epe
29,Vaginal discharge,0,0,0,0,1,12,2,15,0,0,0,0,0,0,0,0,15,0,0,0,0,0,0,0,0,LAGOS,2018,October,Epe
30,Genital Ulcer,0,0,0,0,1,2,0,3,0,0,0,0,0,0,0,0,3,0,0,0,0,0,0,0,0,LAGOS,2018,October,Epe
31,Urethral discharge,0,0,0,0,0,0,0,0,0,0,0,0,0,0,0,0,0,0,0,0,0,0,0,0,0,LAGOS,2018,October,Epe
32,Others STIs,0,0,0,0,0,1,1,2,0,0,0,0,0,0,0,0,2,0,0,0,0,0,0,0,0,LAGOS,2018,October,Epe
33,Trachoma,0,0,0,0,0,0,2,2,0,0,0,0,0,0,0,0,2,0,0,0,0,0,0,0,0,LAGOS,2018,October,Epe
34,Typhoid Fever,0,0,0,1,1,4,4,10,0,0,0,0,0,0,0,0,10,0,0,0,0,0,0,0,0,LAGOS,2018,October,Epe
35,Tuberculosis,0,0,0,0,0,0,0,0,0,0,0,0,0,0,0,0,0,0,0,0,0,0,0,0,0,LAGOS,2018,October,Epe
36,Yellow Fever,0,0,0,0,0,0,0,0,0,0,0,0,0,0,0,0,0,0,0,0,0,0,0,0,0,LAGOS,2018,October,Epe
38,Adverse Events following immunization (AEFI),0,0,0,0,1,0,0,1,0,0,0,0,0,0,0,0,1,0,0,0,0,0,0,0,0,LAGOS,2018,October,Epe
39,Asthma,0,0,0,0,0,2,0,2,0,0,0,0,0,0,0,0,2,0,0,0,0,0,0,0,0,LAGOS,2018,October,Epe
40,Diabetes Mellitus,0,0,0,0,0,0,1,1,0,0,0,0,0,0,0,0,1,0,0,0,0,0,0,0,0,LAGOS,2018,October,Epe
41,Hypertension,0,0,0,0,0,4,14,18,0,0,0,0,0,0,0,0,18,0,0,0,0,0,0,0,0,LAGOS,2018,October,Epe
42,Malnutrition,0,0,0,0,0,0,0,0,0,0,0,0,0,0,0,0,0,0,0,0,0,0,0,0,0,LAGOS,2018,October,Epe
43,Maternal Deaths,0,0,0,0,0,0,0,0,0,0,0,0,0,0,0,0,0,0,0,0,0,0,0,0,0,LAGOS,2018,October,Epe
44,"MNS Disorder (Epilepsy, Schizorphernia depression etc)",0,0,0,0,0,0,0,0,0,0,0,0,0,0,0,0,0,0,0,0,0,0,0,0,0,LAGOS,2018,October,Epe
45,Noma,0,0,0,0,0,0,0,0,0,0,0,0,0,0,0,0,0,0,0,0,0,0,0,0,0,LAGOS,2018,October,Epe
46,Sickle Cell Disorder,0,0,0,0,0,0,0,0,0,0,0,0,0,0,0,0,0,0,0,0,0,0,0,0,0,LAGOS,2018,October,Epe
47,Snake Bite,0,0,0,0,0,0,0,0,0,0,0,0,0,0,0,0,0,0,0,0,0,0,0,0,0,LAGOS,2018,October,Epe
48,Soil Transmitted Helminths,0,0,0,0,0,0,0,0,0,0,0,0,0,0,0,0,0,0,0,0,0,0,0,0,0,LAGOS,2018,October,Epe
